…
    ## Warning: funs() is soft deprecated as of dplyr 0.8.0
    ## please use list() instead
    ## 
    ## # Before:
    ## funs(name = f(.)
    ## 
    ## # After: 
    ## list(name = ~f(.))
    ## This warning is displayed once per session.

    ## # A tibble: 1,309 x 14
    ##    pclass survived name  sex     age sibsp parch ticket  fare cabin
    ##     <int>    <int> <chr> <chr> <dbl> <int> <int> <chr>  <dbl> <chr>
    ##  1      1        1 Alle~ fema~ 29        0     0 24160  211.  B5   
    ##  2      1        1 Alli~ male   0.92     1     2 113781 152.  C22 ~
    ##  3      1        0 Alli~ fema~  2        1     2 113781 152.  C22 ~
    ##  4      1        0 Alli~ male  30        1     2 113781 152.  C22 ~
    ##  5      1        0 Alli~ fema~ 25        1     2 113781 152.  C22 ~
    ##  6      1        1 Ande~ male  48        0     0 19952   26.6 E12  
    ##  7      1        1 Andr~ fema~ 63        1     0 13502   78.0 D7   
    ##  8      1        0 Andr~ male  39        0     0 112050   0   A36  
    ##  9      1        1 Appl~ fema~ 53        2     0 11769   51.5 C101 
    ## 10      1        0 Arta~ male  71        0     0 PC 17~  49.5 <NA> 
    ## # ... with 1,299 more rows, and 4 more variables: embarked <chr>,
    ## #   boat <chr>, body <int>, home.dest <chr>

Replace all NA values into 0 —————————————–

``` r
titanic %>% replace(is.na(.), 0) -> titanic_na_zero_replaced; titanic_na_zero_replaced
```

    ## # A tibble: 1,309 x 14
    ##    pclass survived name  sex     age sibsp parch ticket  fare cabin
    ##     <int>    <int> <chr> <chr> <dbl> <int> <int> <chr>  <dbl> <chr>
    ##  1      1        1 Alle~ fema~ 29        0     0 24160  211.  B5   
    ##  2      1        1 Alli~ male   0.92     1     2 113781 152.  C22 ~
    ##  3      1        0 Alli~ fema~  2        1     2 113781 152.  C22 ~
    ##  4      1        0 Alli~ male  30        1     2 113781 152.  C22 ~
    ##  5      1        0 Alli~ fema~ 25        1     2 113781 152.  C22 ~
    ##  6      1        1 Ande~ male  48        0     0 19952   26.6 E12  
    ##  7      1        1 Andr~ fema~ 63        1     0 13502   78.0 D7   
    ##  8      1        0 Andr~ male  39        0     0 112050   0   A36  
    ##  9      1        1 Appl~ fema~ 53        2     0 11769   51.5 C101 
    ## 10      1        0 Arta~ male  71        0     0 PC 17~  49.5 0    
    ## # ... with 1,299 more rows, and 4 more variables: embarked <chr>,
    ## #   boat <chr>, body <dbl>, home.dest <chr>

Replace all "" values into "NA in character columns ————————————————–

``` r
titanic %>%
  mutate_if(is.character, funs(ifelse(. == "", "NA", .))) -> titanic_1

titanic_1
```

    ## # A tibble: 1,309 x 14
    ##    pclass survived name  sex     age sibsp parch ticket  fare cabin
    ##     <int>    <int> <chr> <chr> <dbl> <int> <int> <chr>  <dbl> <chr>
    ##  1      1        1 Alle~ fema~ 29        0     0 24160  211.  B5   
    ##  2      1        1 Alli~ male   0.92     1     2 113781 152.  C22 ~
    ##  3      1        0 Alli~ fema~  2        1     2 113781 152.  C22 ~
    ##  4      1        0 Alli~ male  30        1     2 113781 152.  C22 ~
    ##  5      1        0 Alli~ fema~ 25        1     2 113781 152.  C22 ~
    ##  6      1        1 Ande~ male  48        0     0 19952   26.6 E12  
    ##  7      1        1 Andr~ fema~ 63        1     0 13502   78.0 D7   
    ##  8      1        0 Andr~ male  39        0     0 112050   0   A36  
    ##  9      1        1 Appl~ fema~ 53        2     0 11769   51.5 C101 
    ## 10      1        0 Arta~ male  71        0     0 PC 17~  49.5 <NA> 
    ## # ... with 1,299 more rows, and 4 more variables: embarked <chr>,
    ## #   boat <chr>, body <int>, home.dest <chr>

Replace all NA values into “NA” in character columns ————————————————–

``` r
titanic_1 %>% 
  mutate_if(is.character, funs(ifelse(is.na(.), "NA", .))) -> titanic_2

titanic_2
```

    ## # A tibble: 1,309 x 14
    ##    pclass survived name  sex     age sibsp parch ticket  fare cabin
    ##     <int>    <int> <chr> <chr> <dbl> <int> <int> <chr>  <dbl> <chr>
    ##  1      1        1 Alle~ fema~ 29        0     0 24160  211.  B5   
    ##  2      1        1 Alli~ male   0.92     1     2 113781 152.  C22 ~
    ##  3      1        0 Alli~ fema~  2        1     2 113781 152.  C22 ~
    ##  4      1        0 Alli~ male  30        1     2 113781 152.  C22 ~
    ##  5      1        0 Alli~ fema~ 25        1     2 113781 152.  C22 ~
    ##  6      1        1 Ande~ male  48        0     0 19952   26.6 E12  
    ##  7      1        1 Andr~ fema~ 63        1     0 13502   78.0 D7   
    ##  8      1        0 Andr~ male  39        0     0 112050   0   A36  
    ##  9      1        1 Appl~ fema~ 53        2     0 11769   51.5 C101 
    ## 10      1        0 Arta~ male  71        0     0 PC 17~  49.5 NA   
    ## # ... with 1,299 more rows, and 4 more variables: embarked <chr>,
    ## #   boat <chr>, body <int>, home.dest <chr>

Replace all NA values into 0 in numeric columns ————————————————–

``` r
titanic_2 %>% 
  mutate_if(is.numeric, funs(ifelse(is.na(.), 0, .))) -> titanic_3

titanic_3
```

    ## # A tibble: 1,309 x 14
    ##    pclass survived name  sex     age sibsp parch ticket  fare cabin
    ##     <int>    <int> <chr> <chr> <dbl> <int> <int> <chr>  <dbl> <chr>
    ##  1      1        1 Alle~ fema~ 29        0     0 24160  211.  B5   
    ##  2      1        1 Alli~ male   0.92     1     2 113781 152.  C22 ~
    ##  3      1        0 Alli~ fema~  2        1     2 113781 152.  C22 ~
    ##  4      1        0 Alli~ male  30        1     2 113781 152.  C22 ~
    ##  5      1        0 Alli~ fema~ 25        1     2 113781 152.  C22 ~
    ##  6      1        1 Ande~ male  48        0     0 19952   26.6 E12  
    ##  7      1        1 Andr~ fema~ 63        1     0 13502   78.0 D7   
    ##  8      1        0 Andr~ male  39        0     0 112050   0   A36  
    ##  9      1        1 Appl~ fema~ 53        2     0 11769   51.5 C101 
    ## 10      1        0 Arta~ male  71        0     0 PC 17~  49.5 NA   
    ## # ... with 1,299 more rows, and 4 more variables: embarked <chr>,
    ## #   boat <chr>, body <dbl>, home.dest <chr>

At once ———————————————————————

``` r
titanic %>%
  mutate_if(is.character, funs(ifelse(. == "", "NA", .))) %>%
  mutate_if(is.character, funs(ifelse(is.na(.), "NA", .))) %>%
  mutate_if(is.numeric, funs(ifelse(is.na(.), 0, .))) -> titanic_replaced

titanic_replaced
```

    ## # A tibble: 1,309 x 14
    ##    pclass survived name  sex     age sibsp parch ticket  fare cabin
    ##     <int>    <int> <chr> <chr> <dbl> <int> <int> <chr>  <dbl> <chr>
    ##  1      1        1 Alle~ fema~ 29        0     0 24160  211.  B5   
    ##  2      1        1 Alli~ male   0.92     1     2 113781 152.  C22 ~
    ##  3      1        0 Alli~ fema~  2        1     2 113781 152.  C22 ~
    ##  4      1        0 Alli~ male  30        1     2 113781 152.  C22 ~
    ##  5      1        0 Alli~ fema~ 25        1     2 113781 152.  C22 ~
    ##  6      1        1 Ande~ male  48        0     0 19952   26.6 E12  
    ##  7      1        1 Andr~ fema~ 63        1     0 13502   78.0 D7   
    ##  8      1        0 Andr~ male  39        0     0 112050   0   A36  
    ##  9      1        1 Appl~ fema~ 53        2     0 11769   51.5 C101 
    ## 10      1        0 Arta~ male  71        0     0 PC 17~  49.5 NA   
    ## # ... with 1,299 more rows, and 4 more variables: embarked <chr>,
    ## #   boat <chr>, body <dbl>, home.dest <chr>

Imputating 0 with mean or median value in body columns —————————–

``` r
titanic_replaced %>%
  mutate_if(is.numeric, funs(ifelse(.==0, mean(.), .)))
```

    ## # A tibble: 1,309 x 14
    ##    pclass survived name  sex     age sibsp parch ticket  fare cabin
    ##     <int>    <dbl> <chr> <chr> <dbl> <dbl> <dbl> <chr>  <dbl> <chr>
    ##  1      1    1     Alle~ fema~ 29    0.499 0.385 24160  211.  B5   
    ##  2      1    1     Alli~ male   0.92 1     2     113781 152.  C22 ~
    ##  3      1    0.382 Alli~ fema~  2    1     2     113781 152.  C22 ~
    ##  4      1    0.382 Alli~ male  30    1     2     113781 152.  C22 ~
    ##  5      1    0.382 Alli~ fema~ 25    1     2     113781 152.  C22 ~
    ##  6      1    1     Ande~ male  48    0.499 0.385 19952   26.6 E12  
    ##  7      1    1     Andr~ fema~ 63    1     0.385 13502   78.0 D7   
    ##  8      1    0.382 Andr~ male  39    0.499 0.385 112050  33.3 A36  
    ##  9      1    1     Appl~ fema~ 53    2     0.385 11769   51.5 C101 
    ## 10      1    0.382 Arta~ male  71    0.499 0.385 PC 17~  49.5 NA   
    ## # ... with 1,299 more rows, and 4 more variables: embarked <chr>,
    ## #   boat <chr>, body <dbl>, home.dest <chr>
…
``` r
median(titanic_replaced$body)
```

    ## [1] 0

``` r
median_value <- median(titanic$body, na.rm = T) 

titanic_replaced %>%
  mutate(body = ifelse(body==0, median_value, body))
```

    ## # A tibble: 1,309 x 14
    ##    pclass survived name  sex     age sibsp parch ticket  fare cabin
    ##     <int>    <int> <chr> <chr> <dbl> <int> <int> <chr>  <dbl> <chr>
    ##  1      1        1 Alle~ fema~ 29        0     0 24160  211.  B5   
    ##  2      1        1 Alli~ male   0.92     1     2 113781 152.  C22 ~
    ##  3      1        0 Alli~ fema~  2        1     2 113781 152.  C22 ~
    ##  4      1        0 Alli~ male  30        1     2 113781 152.  C22 ~
    ##  5      1        0 Alli~ fema~ 25        1     2 113781 152.  C22 ~
    ##  6      1        1 Ande~ male  48        0     0 19952   26.6 E12  
    ##  7      1        1 Andr~ fema~ 63        1     0 13502   78.0 D7   
    ##  8      1        0 Andr~ male  39        0     0 112050   0   A36  
    ##  9      1        1 Appl~ fema~ 53        2     0 11769   51.5 C101 
    ## 10      1        0 Arta~ male  71        0     0 PC 17~  49.5 NA   
    ## # ... with 1,299 more rows, and 4 more variables: embarked <chr>,
    ## #   boat <chr>, body <dbl>, home.dest <chr>

``` r
titanic_replaced %>%
  mutate(body = ifelse(body==0, median_value, body)) -> titanic_imputed

titanic_imputed
```

    ## # A tibble: 1,309 x 14
    ##    pclass survived name  sex     age sibsp parch ticket  fare cabin
    ##     <int>    <int> <chr> <chr> <dbl> <int> <int> <chr>  <dbl> <chr>
    ##  1      1        1 Alle~ fema~ 29        0     0 24160  211.  B5   
    ##  2      1        1 Alli~ male   0.92     1     2 113781 152.  C22 ~
    ##  3      1        0 Alli~ fema~  2        1     2 113781 152.  C22 ~
    ##  4      1        0 Alli~ male  30        1     2 113781 152.  C22 ~
    ##  5      1        0 Alli~ fema~ 25        1     2 113781 152.  C22 ~
    ##  6      1        1 Ande~ male  48        0     0 19952   26.6 E12  
    ##  7      1        1 Andr~ fema~ 63        1     0 13502   78.0 D7   
    ##  8      1        0 Andr~ male  39        0     0 112050   0   A36  
    ##  9      1        1 Appl~ fema~ 53        2     0 11769   51.5 C101 
    ## 10      1        0 Arta~ male  71        0     0 PC 17~  49.5 NA   
    ## # ... with 1,299 more rows, and 4 more variables: embarked <chr>,
    ## #   boat <chr>, body <dbl>, home.dest <chr>
…
``` r
# str(t_tmp)
```

Eliminate all data which has at least a NA ————————————————————————–

``` r
na.omit(titanic) 
```

    ## # A tibble: 32 x 14
    ##    pclass survived name  sex     age sibsp parch ticket  fare cabin
    ##     <int>    <int> <chr> <chr> <dbl> <int> <int> <chr>  <dbl> <chr>
    ##  1      1        0 Alli~ male     30     1     2 113781 152.  C22 ~
    ##  2      1        0 Asto~ male     47     1     0 PC 17~ 228.  C62 ~
    ##  3      1        0 Bran~ male     48     0     0 PC 17~  50.5 B10  
    ##  4      1        0 Cave~ male     36     1     0 19877   78.8 C46  
    ##  5      1        0 Cros~ male     70     1     1 WE/P ~  71   B22  
    ##  6      1        0 Doug~ male     50     1     0 PC 17~ 106.  C86  
    ##  7      1        0 Dull~ male     39     0     0 PC 17~  29.7 A18  
    ##  8      1        0 Gee,~ male     47     0     0 111320  38.5 E63  
    ##  9      1        0 Grah~ male     38     0     1 PC 17~ 153.  C91  
    ## 10      1        0 Harr~ male     40     0     0 112059   0   B94  
    ## # ... with 22 more rows, and 4 more variables: embarked <chr>, boat <chr>,
    ## #   body <int>, home.dest <chr>
…
``` r
df_imdb %>% sample_n(100, replace=T) # sampling with replacement...
```

    ## # A tibble: 100 x 28
    ##    color director_name num_critic_for_~ duration director_facebo~
    ##    <chr> <chr>                    <dbl>    <dbl>            <dbl>
    ##  1 Color Ethan Coen                 488      122             1000
    ##  2 Color Carl Rinsch                218      128               47
    ##  3 Color Mike Judge                 121       84              406
    ##  4 Color Youssef Dela~               16       80                8
    ##  5 Color Wayne Beach                 40       93                7
    ##  6 Color David Twohy                302      127              123
    ##  7 Color Kenneth Bran~              313      105                0
    ##  8 Color Karey Kirkpa~               93      107               11
    ##  9 Color Bart Freundl~              100      103               38
    ## 10 Color Luc Besson                 173      126                0
    ## # ... with 90 more rows, and 23 more variables:
    ## #   actor_3_facebook_likes <dbl>, actor_2_name <chr>,
    ## #   actor_1_facebook_likes <dbl>, gross <dbl>, genres <chr>,
    ## #   actor_1_name <chr>, movie_title <chr>, num_voted_users <dbl>,
    ## #   cast_total_facebook_likes <dbl>, actor_3_name <chr>,
    ## #   facenumber_in_poster <dbl>, plot_keywords <chr>,
    ## #   movie_imdb_link <chr>, num_user_for_reviews <dbl>, language <chr>,
    ## #   country <chr>, content_rating <chr>, budget <dbl>, title_year <dbl>,
    ## #   actor_2_facebook_likes <dbl>, imdb_score <dbl>, aspect_ratio <dbl>,
    ## #   movie_facebook_likes <dbl>

``` r
df_imdb %>% sample_frac(0.01, replace=T) # sampling with replacement and fraction...
```

    ## # A tibble: 50 x 28
    ##    color director_name num_critic_for_~ duration director_facebo~
    ##    <chr> <chr>                    <dbl>    <dbl>            <dbl>
    ##  1 Color Paul Thomas ~              224      188                0
    ##  2 Color Daston Kalili               NA      127                2
    ##  3 Color Jeff Burr                   57       92              155
    ##  4 Color Gurinder Cha~              161      112               98
    ##  5 Color Ang Lee                    357      134                0
    ##  6 Color Stephan Elli~              135       97               11
    ##  7 Color <NA>                        29       60               NA
    ##  8 Color Oleg Stepche~               25      107                0
    ##  9 Color David S. Goy~              185      122              687
    ## 10 Color Bibo Bergeron               63       90               10
    ## # ... with 40 more rows, and 23 more variables:
    ## #   actor_3_facebook_likes <dbl>, actor_2_name <chr>,
    ## #   actor_1_facebook_likes <dbl>, gross <dbl>, genres <chr>,
    ## #   actor_1_name <chr>, movie_title <chr>, num_voted_users <dbl>,
    ## #   cast_total_facebook_likes <dbl>, actor_3_name <chr>,
    ## #   facenumber_in_poster <dbl>, plot_keywords <chr>,
    ## #   movie_imdb_link <chr>, num_user_for_reviews <dbl>, language <chr>,
    ## #   country <chr>, content_rating <chr>, budget <dbl>, title_year <dbl>,
    ## #   actor_2_facebook_likes <dbl>, imdb_score <dbl>, aspect_ratio <dbl>,
…
‘color’\~‘movie\_imdb\_link’ selecting…

``` r
df_imdb %>%
  select(color:movie_imdb_link)
```

    ## # A tibble: 5,043 x 18
    ##    color director_name num_critic_for_~ duration director_facebo~
    ##    <chr> <chr>                    <dbl>    <dbl>            <dbl>
    ##  1 Color James Cameron              723      178                0
    ##  2 Color Gore Verbins~              302      169              563
    ##  3 Color Sam Mendes                 602      148                0
    ##  4 Color Christopher ~              813      164            22000
    ##  5 <NA>  Doug Walker                 NA       NA              131
    ##  6 Color Andrew Stant~              462      132              475
    ##  7 Color Sam Raimi                  392      156                0
    ##  8 Color Nathan Greno               324      100               15
    ##  9 Color Joss Whedon                635      141                0
    ## 10 Color David Yates                375      153              282
    ## # ... with 5,033 more rows, and 13 more variables:
    ## #   actor_3_facebook_likes <dbl>, actor_2_name <chr>,
    ## #   actor_1_facebook_likes <dbl>, gross <dbl>, genres <chr>,
    ## #   actor_1_name <chr>, movie_title <chr>, num_voted_users <dbl>,
    ## #   cast_total_facebook_likes <dbl>, actor_3_name <chr>,
    ## #   facenumber_in_poster <dbl>, plot_keywords <chr>, movie_imdb_link <chr>

Selecting columns whose name starts with certain characters…

``` r
df_imdb %>% select(starts_with('direc'))
```

    ## # A tibble: 5,043 x 2
    ##    director_name     director_facebook_likes
    ##    <chr>                               <dbl>
    ##  1 James Cameron                           0
    ##  2 Gore Verbinski                        563
    ##  3 Sam Mendes                              0
    ##  4 Christopher Nolan                   22000
    ##  5 Doug Walker                           131
    ##  6 Andrew Stanton                        475
    ##  7 Sam Raimi                               0
    ##  8 Nathan Greno                           15
    ##  9 Joss Whedon                             0
    ## 10 David Yates                           282
    ## # ... with 5,033 more rows

Selecting columns whose name ends with certain characters….

``` r
df_imdb %>% select(ends_with('likes')) 
```

    ## # A tibble: 5,043 x 6
    ##    director_facebo~ actor_3_faceboo~ actor_1_faceboo~ cast_total_face~
    ##               <dbl>            <dbl>            <dbl>            <dbl>
    ##  1                0              855             1000             4834
    ##  2              563             1000            40000            48350
    ##  3                0              161            11000            11700
    ##  4            22000            23000            27000           106759
    ##  5              131               NA              131              143
    ##  6              475              530              640             1873
    ##  7                0             4000            24000            46055
    ##  8               15              284              799             2036
    ##  9                0            19000            26000            92000
    ## 10              282            10000            25000            58753
    ## # ... with 5,033 more rows, and 2 more variables:
    ## #   actor_2_facebook_likes <dbl>, movie_facebook_likes <dbl>
…
