…
Data Wranggling ————————————————————-

dplyr basic —————————————————————–

``` r
library(nycflights13); flights
```

    ## Warning: package 'nycflights13' was built under R version 3.5.3

    ## # A tibble: 336,776 x 19
    ##     year month   day dep_time sched_dep_time dep_delay arr_time
    ##    <int> <int> <int>    <int>          <int>     <dbl>    <int>
    ##  1  2013     1     1      517            515         2      830
    ##  2  2013     1     1      533            529         4      850
    ##  3  2013     1     1      542            540         2      923
    ##  4  2013     1     1      544            545        -1     1004
    ##  5  2013     1     1      554            600        -6      812
    ##  6  2013     1     1      554            558        -4      740
    ##  7  2013     1     1      555            600        -5      913
    ##  8  2013     1     1      557            600        -3      709
    ##  9  2013     1     1      557            600        -3      838
    ## 10  2013     1     1      558            600        -2      753
    ## # ... with 336,766 more rows, and 12 more variables: sched_arr_time <int>,
    ## #   arr_delay <dbl>, carrier <chr>, flight <int>, tailnum <chr>,
    ## #   origin <chr>, dest <chr>, air_time <dbl>, distance <dbl>, hour <dbl>,
    ## #   minute <dbl>, time_hour <dttm>

``` r
filter(flights, month == 1, day == 1)
```

    ## # A tibble: 842 x 19
    ##     year month   day dep_time sched_dep_time dep_delay arr_time
    ##    <int> <int> <int>    <int>          <int>     <dbl>    <int>
    ##  1  2013     1     1      517            515         2      830
    ##  2  2013     1     1      533            529         4      850
    ##  3  2013     1     1      542            540         2      923
    ##  4  2013     1     1      544            545        -1     1004
    ##  5  2013     1     1      554            600        -6      812
    ##  6  2013     1     1      554            558        -4      740
    ##  7  2013     1     1      555            600        -5      913
    ##  8  2013     1     1      557            600        -3      709
    ##  9  2013     1     1      557            600        -3      838
    ## 10  2013     1     1      558            600        -2      753
    ## # ... with 832 more rows, and 12 more variables: sched_arr_time <int>,
    ## #   arr_delay <dbl>, carrier <chr>, flight <int>, tailnum <chr>,
    ## #   origin <chr>, dest <chr>, air_time <dbl>, distance <dbl>, hour <dbl>,
    ## #   minute <dbl>, time_hour <dttm>

``` r
flights[flights$month == 1 & flights$day == 1, ]
```

    ## # A tibble: 842 x 19
    ##     year month   day dep_time sched_dep_time dep_delay arr_time
    ##    <int> <int> <int>    <int>          <int>     <dbl>    <int>
    ##  1  2013     1     1      517            515         2      830
    ##  2  2013     1     1      533            529         4      850
    ##  3  2013     1     1      542            540         2      923
    ##  4  2013     1     1      544            545        -1     1004
    ##  5  2013     1     1      554            600        -6      812
    ##  6  2013     1     1      554            558        -4      740
    ##  7  2013     1     1      555            600        -5      913
    ##  8  2013     1     1      557            600        -3      709
    ##  9  2013     1     1      557            600        -3      838
    ## 10  2013     1     1      558            600        -2      753
    ## # ... with 832 more rows, and 12 more variables: sched_arr_time <int>,
    ## #   arr_delay <dbl>, carrier <chr>, flight <int>, tailnum <chr>,
    ## #   origin <chr>, dest <chr>, air_time <dbl>, distance <dbl>, hour <dbl>,
    ## #   minute <dbl>, time_hour <dttm>

``` r
arrange(flights, year, month, day)
```

    ## # A tibble: 336,776 x 19
    ##     year month   day dep_time sched_dep_time dep_delay arr_time
    ##    <int> <int> <int>    <int>          <int>     <dbl>    <int>
    ##  1  2013     1     1      517            515         2      830
    ##  2  2013     1     1      533            529         4      850
    ##  3  2013     1     1      542            540         2      923
    ##  4  2013     1     1      544            545        -1     1004
    ##  5  2013     1     1      554            600        -6      812
    ##  6  2013     1     1      554            558        -4      740
    ##  7  2013     1     1      555            600        -5      913
    ##  8  2013     1     1      557            600        -3      709
    ##  9  2013     1     1      557            600        -3      838
    ## 10  2013     1     1      558            600        -2      753
    ## # ... with 336,766 more rows, and 12 more variables: sched_arr_time <int>,
    ## #   arr_delay <dbl>, carrier <chr>, flight <int>, tailnum <chr>,
    ## #   origin <chr>, dest <chr>, air_time <dbl>, distance <dbl>, hour <dbl>,
    ## #   minute <dbl>, time_hour <dttm>

``` r
arrange(flights, desc(arr_delay))
```

    ## # A tibble: 336,776 x 19
    ##     year month   day dep_time sched_dep_time dep_delay arr_time
    ##    <int> <int> <int>    <int>          <int>     <dbl>    <int>
    ##  1  2013     1     9      641            900      1301     1242
    ##  2  2013     6    15     1432           1935      1137     1607
    ##  3  2013     1    10     1121           1635      1126     1239
    ##  4  2013     9    20     1139           1845      1014     1457
    ##  5  2013     7    22      845           1600      1005     1044
    ##  6  2013     4    10     1100           1900       960     1342
    ##  7  2013     3    17     2321            810       911      135
    ##  8  2013     7    22     2257            759       898      121
    ##  9  2013    12     5      756           1700       896     1058
    ## 10  2013     5     3     1133           2055       878     1250
    ## # ... with 336,766 more rows, and 12 more variables: sched_arr_time <int>,
    ## #   arr_delay <dbl>, carrier <chr>, flight <int>, tailnum <chr>,
    ## #   origin <chr>, dest <chr>, air_time <dbl>, distance <dbl>, hour <dbl>,
    ## #   minute <dbl>, time_hour <dttm>

``` r
select(flights, year, month, day)
```

    ## # A tibble: 336,776 x 3
    ##     year month   day
    ##    <int> <int> <int>
    ##  1  2013     1     1
    ##  2  2013     1     1
    ##  3  2013     1     1
    ##  4  2013     1     1
    ##  5  2013     1     1
    ##  6  2013     1     1
    ##  7  2013     1     1
    ##  8  2013     1     1
    ##  9  2013     1     1
    ## 10  2013     1     1
    ## # ... with 336,766 more rows

``` r
select(flights, year:day)
```

    ## # A tibble: 336,776 x 3
    ##     year month   day
    ##    <int> <int> <int>
    ##  1  2013     1     1
    ##  2  2013     1     1
    ##  3  2013     1     1
    ##  4  2013     1     1
    ##  5  2013     1     1
    ##  6  2013     1     1
    ##  7  2013     1     1
    ##  8  2013     1     1
    ##  9  2013     1     1
    ## 10  2013     1     1
    ## # ... with 336,766 more rows

``` r
select(flights, -(year:day))
```

    ## # A tibble: 336,776 x 16
    ##    dep_time sched_dep_time dep_delay arr_time sched_arr_time arr_delay
    ##       <int>          <int>     <dbl>    <int>          <int>     <dbl>
    ##  1      517            515         2      830            819        11
    ##  2      533            529         4      850            830        20
    ##  3      542            540         2      923            850        33
    ##  4      544            545        -1     1004           1022       -18
    ##  5      554            600        -6      812            837       -25
    ##  6      554            558        -4      740            728        12
    ##  7      555            600        -5      913            854        19
    ##  8      557            600        -3      709            723       -14
    ##  9      557            600        -3      838            846        -8
    ## 10      558            600        -2      753            745         8
    ## # ... with 336,766 more rows, and 10 more variables: carrier <chr>,
    ## #   flight <int>, tailnum <chr>, origin <chr>, dest <chr>, air_time <dbl>,
    ## #   distance <dbl>, hour <dbl>, minute <dbl>, time_hour <dttm>

``` r
select(flights, starts_with("dep"))
```

    ## # A tibble: 336,776 x 2
    ##    dep_time dep_delay
    ##       <int>     <dbl>
    ##  1      517         2
    ##  2      533         4
    ##  3      542         2
    ##  4      544        -1
    ##  5      554        -6
    ##  6      554        -4
    ##  7      555        -5
    ##  8      557        -3
    ##  9      557        -3
    ## 10      558        -2
    ## # ... with 336,766 more rows

``` r
select(flights, ends_with("delay"))
```

    ## # A tibble: 336,776 x 2
    ##    dep_delay arr_delay
    ##        <dbl>     <dbl>
    ##  1         2        11
    ##  2         4        20
    ##  3         2        33
    ##  4        -1       -18
    ##  5        -6       -25
    ##  6        -4        12
    ##  7        -5        19
    ##  8        -3       -14
    ##  9        -3        -8
    ## 10        -2         8
    ## # ... with 336,766 more rows

``` r
select(flights, contains("time"))
```

    ## # A tibble: 336,776 x 6
    ##    dep_time sched_dep_time arr_time sched_arr_time air_time
    ##       <int>          <int>    <int>          <int>    <dbl>
    ##  1      517            515      830            819      227
    ##  2      533            529      850            830      227
    ##  3      542            540      923            850      160
    ##  4      544            545     1004           1022      183
    ##  5      554            600      812            837      116
    ##  6      554            558      740            728      150
    ##  7      555            600      913            854      158
    ##  8      557            600      709            723       53
    ##  9      557            600      838            846      140
    ## 10      558            600      753            745      138
    ## # ... with 336,766 more rows, and 1 more variable: time_hour <dttm>

``` r
select(flights, matches("^dep"))
```

    ## # A tibble: 336,776 x 2
    ##    dep_time dep_delay
    ##       <int>     <dbl>
    ##  1      517         2
    ##  2      533         4
    ##  3      542         2
    ##  4      544        -1
    ##  5      554        -6
    ##  6      554        -4
    ##  7      555        -5
    ##  8      557        -3
    ##  9      557        -3
    ## 10      558        -2
    ## # ... with 336,766 more rows

``` r
select(flights, tail_num = tailnum)
```

    ## # A tibble: 336,776 x 1
    ##    tail_num
    ##    <chr>   
    ##  1 N14228  
    ##  2 N24211  
    ##  3 N619AA  
    ##  4 N804JB  
    ##  5 N668DN  
    ##  6 N39463  
    ##  7 N516JB  
    ##  8 N829AS  
    ##  9 N593JB  
    ## 10 N3ALAA  
    ## # ... with 336,766 more rows

``` r
rename(flights, tail_num = tailnum)
```

    ## # A tibble: 336,776 x 19
    ##     year month   day dep_time sched_dep_time dep_delay arr_time
    ##    <int> <int> <int>    <int>          <int>     <dbl>    <int>
    ##  1  2013     1     1      517            515         2      830
    ##  2  2013     1     1      533            529         4      850
    ##  3  2013     1     1      542            540         2      923
    ##  4  2013     1     1      544            545        -1     1004
    ##  5  2013     1     1      554            600        -6      812
    ##  6  2013     1     1      554            558        -4      740
    ##  7  2013     1     1      555            600        -5      913
    ##  8  2013     1     1      557            600        -3      709
    ##  9  2013     1     1      557            600        -3      838
    ## 10  2013     1     1      558            600        -2      753
    ## # ... with 336,766 more rows, and 12 more variables: sched_arr_time <int>,
    ## #   arr_delay <dbl>, carrier <chr>, flight <int>, tail_num <chr>,
    ## #   origin <chr>, dest <chr>, air_time <dbl>, distance <dbl>, hour <dbl>,
    ## #   minute <dbl>, time_hour <dttm>

``` r
mutate(flights,
       gain = arr_delay - dep_delay,
       speed = distance / air_time * 60
) # %>% View()
```

    ## # A tibble: 336,776 x 21
    ##     year month   day dep_time sched_dep_time dep_delay arr_time
    ##    <int> <int> <int>    <int>          <int>     <dbl>    <int>
    ##  1  2013     1     1      517            515         2      830
    ##  2  2013     1     1      533            529         4      850
    ##  3  2013     1     1      542            540         2      923
    ##  4  2013     1     1      544            545        -1     1004
    ##  5  2013     1     1      554            600        -6      812
    ##  6  2013     1     1      554            558        -4      740
    ##  7  2013     1     1      555            600        -5      913
    ##  8  2013     1     1      557            600        -3      709
    ##  9  2013     1     1      557            600        -3      838
    ## 10  2013     1     1      558            600        -2      753
    ## # ... with 336,766 more rows, and 14 more variables: sched_arr_time <int>,
    ## #   arr_delay <dbl>, carrier <chr>, flight <int>, tailnum <chr>,
    ## #   origin <chr>, dest <chr>, air_time <dbl>, distance <dbl>, hour <dbl>,
    ## #   minute <dbl>, time_hour <dttm>, gain <dbl>, speed <dbl>

``` r
transform(flights,
          gain = arr_delay - dep_delay,
          speed = distance / air_time * 60
) %>% as_tibble()
```

    ## # A tibble: 336,776 x 21
    ##     year month   day dep_time sched_dep_time dep_delay arr_time
    ##    <int> <int> <int>    <int>          <int>     <dbl>    <int>
    ##  1  2013     1     1      517            515         2      830
    ##  2  2013     1     1      533            529         4      850
    ##  3  2013     1     1      542            540         2      923
    ##  4  2013     1     1      544            545        -1     1004
    ##  5  2013     1     1      554            600        -6      812
    ##  6  2013     1     1      554            558        -4      740
    ##  7  2013     1     1      555            600        -5      913
    ##  8  2013     1     1      557            600        -3      709
    ##  9  2013     1     1      557            600        -3      838
    ## 10  2013     1     1      558            600        -2      753
    ## # ... with 336,766 more rows, and 14 more variables: sched_arr_time <int>,
    ## #   arr_delay <dbl>, carrier <chr>, flight <int>, tailnum <chr>,
    ## #   origin <chr>, dest <chr>, air_time <dbl>, distance <dbl>, hour <dbl>,
    ## #   minute <dbl>, time_hour <dttm>, gain <dbl>, speed <dbl>

``` r
mutate(flights,
       gain = arr_delay - dep_delay,
       gain_per_hour = gain / (air_time / 60)
)
```

    ## # A tibble: 336,776 x 21
    ##     year month   day dep_time sched_dep_time dep_delay arr_time
    ##    <int> <int> <int>    <int>          <int>     <dbl>    <int>
    ##  1  2013     1     1      517            515         2      830
    ##  2  2013     1     1      533            529         4      850
    ##  3  2013     1     1      542            540         2      923
    ##  4  2013     1     1      544            545        -1     1004
    ##  5  2013     1     1      554            600        -6      812
    ##  6  2013     1     1      554            558        -4      740
    ##  7  2013     1     1      555            600        -5      913
    ##  8  2013     1     1      557            600        -3      709
    ##  9  2013     1     1      557            600        -3      838
    ## 10  2013     1     1      558            600        -2      753
    ## # ... with 336,766 more rows, and 14 more variables: sched_arr_time <int>,
    ## #   arr_delay <dbl>, carrier <chr>, flight <int>, tailnum <chr>,
    ## #   origin <chr>, dest <chr>, air_time <dbl>, distance <dbl>, hour <dbl>,
    ## #   minute <dbl>, time_hour <dttm>, gain <dbl>, gain_per_hour <dbl>

transmute() —————————————————————–

``` r
transmute(flights,
          gain = arr_delay - dep_delay,
          gain_per_hour = gain / (air_time / 60)
)
```

    ## # A tibble: 336,776 x 2
    ##     gain gain_per_hour
    ##    <dbl>         <dbl>
    ##  1     9          2.38
    ##  2    16          4.23
    ##  3    31         11.6 
    ##  4   -17         -5.57
    ##  5   -19         -9.83
    ##  6    16          6.4 
    ##  7    24          9.11
    ##  8   -11        -12.5 
    ##  9    -5         -2.14
    ## 10    10          4.35
    ## # ... with 336,766 more rows
…
``` r
sample_frac(flights, 0.01)
```

    ## # A tibble: 3,368 x 19
    ##     year month   day dep_time sched_dep_time dep_delay arr_time
    ##    <int> <int> <int>    <int>          <int>     <dbl>    <int>
    ##  1  2013    10     7       NA           2129        NA       NA
    ##  2  2013     7    27     1348           1348         0     1451
    ##  3  2013    10    11     1725           1535       110     1901
    ##  4  2013     1     5      824            830        -6     1019
    ##  5  2013    10    25      801            808        -7      909
    ##  6  2013     7    27     1854           1855        -1     2301
    ##  7  2013     5    23     1303           1215        48     1411
    ##  8  2013     7    11     1210           1210         0     1344
    ##  9  2013     3    24      941            945        -4     1100
    ## 10  2013     8    20     1413           1415        -2     1632
    ## # ... with 3,358 more rows, and 12 more variables: sched_arr_time <int>,
    ## #   arr_delay <dbl>, carrier <chr>, flight <int>, tailnum <chr>,
    ## #   origin <chr>, dest <chr>, air_time <dbl>, distance <dbl>, hour <dbl>,
    ## #   minute <dbl>, time_hour <dttm>

group\_by() ——————————————————————

``` r
by_tailnum <- group_by(flights, tailnum)
delay <- summarise(by_tailnum,
                   count = n(),
                   dist = mean(distance, na.rm = TRUE),
                   delay = mean(arr_delay, na.rm = TRUE))
delay
```

    ## # A tibble: 4,044 x 4
    ##    tailnum count  dist    delay
    ##    <chr>   <int> <dbl>    <dbl>
    ##  1 <NA>     2512  710.  NaN    
    ##  2 D942DN      4  854.   31.5  
    ##  3 N0EGMQ    371  676.    9.98 
    ##  4 N10156    153  758.   12.7  
    ##  5 N102UW     48  536.    2.94 
    ##  6 N103US     46  535.   -6.93 
    ##  7 N104UW     47  535.    1.80 
    ##  8 N10575    289  520.   20.7  
    ##  9 N105UW     45  525.   -0.267
    ## 10 N107US     41  529.   -5.73 
    ## # ... with 4,034 more rows

``` r
by_dest <- group_by(flights, dest)
destinations <- summarise(by_dest,
                          planes = n_distinct(tailnum),
                          flights = n()
)
destinations
```

    ## # A tibble: 105 x 3
    ##    dest  planes flights
    ##    <chr>  <int>   <int>
    ##  1 ABQ      108     254
    ##  2 ACK       58     265
    ##  3 ALB      172     439
    ##  4 ANC        6       8
    ##  5 ATL     1180   17215
    ##  6 AUS      993    2439
    ##  7 AVL      159     275
    ##  8 BDL      186     443
    ##  9 BGR       46     375
    ## 10 BHM       45     297
    ## # ... with 95 more rows
…
