…
boxplot

``` r
as_tibble(iris)
```

    ## # A tibble: 150 x 5
    ##    Sepal.Length Sepal.Width Petal.Length Petal.Width Species
    ##           <dbl>       <dbl>        <dbl>       <dbl> <fct>  
    ##  1          5.1         3.5          1.4         0.2 setosa 
    ##  2          4.9         3            1.4         0.2 setosa 
    ##  3          4.7         3.2          1.3         0.2 setosa 
    ##  4          4.6         3.1          1.5         0.2 setosa 
    ##  5          5           3.6          1.4         0.2 setosa 
    ##  6          5.4         3.9          1.7         0.4 setosa 
    ##  7          4.6         3.4          1.4         0.3 setosa 
    ##  8          5           3.4          1.5         0.2 setosa 
    ##  9          4.4         2.9          1.4         0.2 setosa 
    ## 10          4.9         3.1          1.5         0.1 setosa 
    ## # … with 140 more rows
…
``` r
iris %>%
  as_tibble() %>%
  tibble :: rowid_to_column("ID") %>%
  mutate(yesno = 1) %>%
  spread(Species, yesno, fill = 0) -> iris_dummy 

iris_dummy
```

    ## # A tibble: 150 x 8
    ##       ID Sepal.Length Sepal.Width Petal.Length Petal.Width setosa
    ##    <int>        <dbl>       <dbl>        <dbl>       <dbl>  <dbl>
    ##  1     1          5.1         3.5          1.4         0.2      1
    ##  2     2          4.9         3            1.4         0.2      1
    ##  3     3          4.7         3.2          1.3         0.2      1
    ##  4     4          4.6         3.1          1.5         0.2      1
    ##  5     5          5           3.6          1.4         0.2      1
    ##  6     6          5.4         3.9          1.7         0.4      1
    ##  7     7          4.6         3.4          1.4         0.3      1
    ##  8     8          5           3.4          1.5         0.2      1
    ##  9     9          4.4         2.9          1.4         0.2      1
    ## 10    10          4.9         3.1          1.5         0.1      1
    ## # … with 140 more rows, and 2 more variables: versicolor <dbl>,
    ## #   virginica <dbl>
…
