…
Word Count with slam package ————————————————

``` r
dtm_contents %>%
  slam::col_sums() %>%
  base::as.data.frame() %>%
  tibble::rownames_to_column() %>%
  as_tibble() %>%
  rename(words = rowname, freq = ".") %>%
  arrange(desc(freq))
```

    ## # A tibble: 18,775 x 2
    ##    words         freq
    ##    <chr>        <dbl>
    ##  1 무한도전      498.
    ##  2 예능          313.
    ##  3 00a0          284.
    ##  4 정글          284.
    ##  5 1박           282.
    ##  6 삼시세끼      279.
    ##  7 프로그램      270.
    ##  8 방송          266.
    ##  9 출연          252.
    ## 10 예능프로그램  251.
    ## # ... with 18,765 more rows
…
문서 유사도순으로 배열하기
————————————————–

``` r
orders <- data.frame(doc = 'doc_959', scores = t(cord), stringsAsFactors = F)
orders %>%
  as_tibble() %>%
  rownames_to_column() %>%
  rename(doc.num = rowname) %>%
  arrange(desc(scores)) -> similarity.for_doc_9th

similarity.for_doc_9th
```

    ## # A tibble: 1,872 x 3
    ##    doc.num doc     scores
    ##    <chr>   <chr>    <dbl>
    ##  1 959     doc_959  2.56 
    ##  2 4755    doc_959  0.854
    ##  3 1035    doc_959  0.590
    ##  4 1775    doc_959  0.575
    ##  5 5297    doc_959  0.480
    ##  6 1577    doc_959  0.479
    ##  7 1681    doc_959  0.446
    ##  8 8526    doc_959  0.443
    ##  9 823     doc_959  0.399
    ## 10 832     doc_959  0.393
    ## # ... with 1,862 more rows
…
