…
Using `slam packaege` ——————————————————-

``` r
dtm_title %>%
  slam::col_sums(na.rm = T) %>%
  as.data.frame() %>% 
  rownames_to_column() %>%
  as_tibble() %>%
  rename(words = rowname) %>%
  rename(freq = ".") ->  df.title_word_count
  
df.title_word_count # %>% View()
```

    ## # A tibble: 12,245 x 2
    ##    words        freq
    ##    <chr>       <dbl>
    ##  1 ★shot           5
    ##  2 ★날선무비       3
    ##  3 ★다이제스트     1
    ##  4 ★들            10
    ##  5 ★들이           1
    ##  6 ★말말           1
    ##  7 ★말말말         5
    ##  8 ★밤tv           6
    ##  9 ★밤tv가슴       3
    ## 10 ★밤tv감동       3
    ## # ... with 12,235 more rows
…
    ##     month       variable value
    ## 1 2016-10  sum.day_night   683
    ## 2 2016-11  sum.day_night   630
    ## 3 2016-12  sum.day_night   714
    ## 4 2017-01  sum.day_night   996
    ## 5 2016-10 sum.live_alone   136
    ## 6 2016-11 sum.live_alone   189

``` r
data_mon_sum %>%
  gather(pro_nm, value, -month)
```

    ## # A tibble: 36 x 3
    ##    month   pro_nm                value
    ##    <chr>   <chr>                 <dbl>
    ##  1 2016-10 sum.day_night           683
    ##  2 2016-11 sum.day_night           630
    ##  3 2016-12 sum.day_night           714
    ##  4 2017-01 sum.day_night           996
    ##  5 2016-10 sum.live_alone          136
    ##  6 2016-11 sum.live_alone          189
    ##  7 2016-12 sum.live_alone           85
    ##  8 2017-01 sum.live_alone          114
    ##  9 2016-10 sum.endless_challenge  1618
    ## 10 2016-11 sum.endless_challenge  1189
    ## # ... with 26 more rows
…
word count, word cloud 등

``` r
dtm_contents %>%
  slam::col_sums() %>%
  as.data.frame() %>%
  rownames_to_column() %>% 
  rename(freq = ".") %>%
  rename(words = rowname) %>%
  filter(freq >= 50) %>% 
  as_tibble() ->  data.for_wordcloud; data.for_wordcloud
```

    ## # A tibble: 509 x 2
    ##    words  freq
    ##    <chr> <dbl>
    ##  1 10      110
    ##  2 10년     55
    ##  3 10시    125
    ##  4 10월    114
    ##  5 11       77
    ##  6 11시     90
    ##  7 11월    142
    ##  8 12      238
    ##  9 12월    133
    ## 10 13      160
    ## # ... with 499 more rows

text cleansing—-

``` r
data.for_wordcloud %>%
  slice(-grep("^\\d+$", words)) -> data.for_wordcloud  # eliminate all rows which contains only digit number character

data.for_wordcloud  # %>% View()
```

    ## # A tibble: 488 x 2
    ##    words     freq
    ##    <chr>    <dbl>
    ##  1 10년        55
    ##  2 10시       125
    ##  3 10월       114
    ##  4 11시        90
    ##  5 11월       142
    ##  6 12월       133
    ##  7 15분        70
    ##  8 1라운드     57
    ##  9 1박2일    2366
    ## 10 1박2일간    79
    ## # ... with 478 more rows
…
