…
``` r
model_arch <- df.valid %>% # model_val
  mutate(GLM  = predict(glm_m, df.valid),
         CART = predict(cart_m, df.valid),
         RF = predict(rf_m, df.valid))

model_arch %>%
  select('gender', 'GLM', 'CART', 'RF') -> model_pred_result; model_pred_result
```

    ## # A tibble: 417 x 4
    ##    gender GLM   CART  RF   
    ##    <fct>  <fct> <fct> <fct>
    ##  1 0      0     0     0    
    ##  2 1      1     0     0    
    ##  3 0      0     0     0    
    ##  4 0      0     0     0    
    ##  5 0      0     0     0    
    ##  6 1      1     1     1    
    ##  7 0      0     0     0    
    ##  8 1      0     1     0    
    ##  9 0      0     0     0    
    ## 10 1      1     1     1    
    ## # ... with 407 more rows
…
# Evaluation with validation data----
model_arch <- df.valid %>% # model_val
  mutate(GLM  = predict(glm_m, df.valid),
         CART = predict(cart_m, df.valid),
         RF = predict(rf_m, df.valid))
         # XGB = predict(xgboost_m, df.valid))

model_arch %>%
  select(gender, GLM, CART, RF) -> model_pred_result # select(gender, GLM, CART, RF, XGB)

head(model_pred_result, 30)
```

    ## # A tibble: 30 x 4
    ##    gender GLM   CART  RF   
    ##    <fct>  <fct> <fct> <fct>
    ##  1 0      0     0     0    
    ##  2 1      1     0     0    
    ##  3 0      0     0     0    
    ##  4 0      0     0     0    
    ##  5 0      0     0     0    
    ##  6 1      1     1     1    
    ##  7 0      0     0     0    
    ##  8 1      0     1     0    
    ##  9 0      0     0     0    
    ## 10 1      1     1     1    
    ## # ... with 20 more rows
…
