…
물품종류의 총 갯수는 84개이다.

like python value.count() :: 각 물품별 거래데이터에서 등장횟수는 다음과 같이 손쉽게 구할 수 있다.

``` r
tran %>%
  select(prod) %>%
  group_by(prod) %>%
  tally() %>% arrange(desc(n))
```

    ## # A tibble: 84 x 2
    ##    prod                n
    ##    <chr>           <int>
    ##  1 softdrinks       1418
    ##  2 milk             1414
    ##  3 fruitvegetables  1075
    ##  4 fermentedmilk    1069
    ##  5 beans            1061
    ##  6 harddrinks        942
    ##  7 ramen             928
    ##  8 snacks            907
    ##  9 cooky/cakes       892
    ## 10 eidbleherbs       801
    ## # … with 74 more rows
…
    ## [1] 11

거래데이터에서 각 물품들은 11개의 카테고리로 분류된다.

joining :: 위의 테이블을 원래 거래 데이터와 조인한다.

``` r
as_tibble(tran) -> tran
tran %>% left_join(prod_ct_tbl, by='prod') -> tran
tran
```

    ## # A tibble: 27,993 x 6
    ##    ymd        time   custid prod                  amt prod_ct   
    ##    <date>     <time> <chr>  <chr>               <dbl> <chr>     
    ##  1 2012-04-01 10:00  C2048  softdrinks            700 drink     
    ##  2 2012-04-01 10:00  C2069  fermentedmilk        2990 dairy     
    ##  3 2012-04-01 10:00  C2069  chilledlivestock     5980 meat      
    ##  4 2012-04-01 10:00  C2069  cooky/cakes          3200 snack     
    ##  5 2012-04-01 10:00  C2069  mushrooms            1000 vegetable 
    ##  6 2012-04-01 10:00  C0211  bread                5200 snack     
    ##  7 2012-04-01 10:00  C0859  laundrydetergent     2000 house_prod
    ##  8 2012-04-01 11:00  C0819  beans                1950 vegetable 
    ##  9 2012-04-01 11:00  C0819  mushrooms            1000 vegetable 
    ## 10 2012-04-01 11:00  C1321  otherreadymadefoods  2000 fastfood  
    ## # … with 27,983 more rows
…
