…
select vars—-

``` r
library(mlbench)
data("Soybean")
dim(Soybean)
```

    ## [1] 683  36

``` r
Soybean %>% as_tibble()
```

    ## # A tibble: 683 x 36
    ##    Class date  plant.stand precip temp  hail  crop.hist area.dam sever
    ##    <fct> <fct> <ord>       <ord>  <ord> <fct> <fct>     <fct>    <fct>
    ##  1 diap… 6     0           2      1     0     1         1        1    
    ##  2 diap… 4     0           2      1     0     2         0        2    
    ##  3 diap… 3     0           2      1     0     1         0        2    
    ##  4 diap… 3     0           2      1     0     1         0        2    
    ##  5 diap… 6     0           2      1     0     2         0        1    
    ##  6 diap… 5     0           2      1     0     3         0        1    
    ##  7 diap… 5     0           2      1     0     2         0        1    
    ##  8 diap… 4     0           2      1     1     1         0        1    
    ##  9 diap… 6     0           2      1     0     3         0        1    
    ## 10 diap… 4     0           2      1     0     2         0        2    
    ## # … with 673 more rows, and 27 more variables: seed.tmt <fct>, germ <ord>,
    ## #   plant.growth <fct>, leaves <fct>, leaf.halo <fct>, leaf.marg <fct>,
    ## #   leaf.size <ord>, leaf.shread <fct>, leaf.malf <fct>, leaf.mild <fct>,
    ## #   stem <fct>, lodging <fct>, stem.cankers <fct>, canker.lesion <fct>,
    ## #   fruiting.bodies <fct>, ext.decay <fct>, mycelium <fct>,
    ## #   int.discolor <fct>, sclerotia <fct>, fruit.pods <fct>,
    ## #   fruit.spots <fct>, seed <fct>, mold.growth <fct>, seed.discolor <fct>,
    ## #   seed.size <fct>, shriveling <fct>, roots <fct>
caret::nearZeroVar()—-

``` r
nearZeroVar(Soybean)
```

    ## [1] 19 26 28

``` r
Soybean %>%
  as_tibble() %>%
  select(-nearZeroVar(.)) -> mySoybean; mySoybean
```

    ## # A tibble: 683 x 33
    ##    Class date  plant.stand precip temp  hail  crop.hist area.dam sever
    ##    <fct> <fct> <ord>       <ord>  <ord> <fct> <fct>     <fct>    <fct>
    ##  1 diap… 6     0           2      1     0     1         1        1    
    ##  2 diap… 4     0           2      1     0     2         0        2    
    ##  3 diap… 3     0           2      1     0     1         0        2    
    ##  4 diap… 3     0           2      1     0     1         0        2    
    ##  5 diap… 6     0           2      1     0     2         0        1    
    ##  6 diap… 5     0           2      1     0     3         0        1    
    ##  7 diap… 5     0           2      1     0     2         0        1    
    ##  8 diap… 4     0           2      1     1     1         0        1    
    ##  9 diap… 6     0           2      1     0     3         0        1    
    ## 10 diap… 4     0           2      1     0     2         0        2    
    ## # … with 673 more rows, and 24 more variables: seed.tmt <fct>, germ <ord>,
    ## #   plant.growth <fct>, leaves <fct>, leaf.halo <fct>, leaf.marg <fct>,
    ## #   leaf.size <ord>, leaf.shread <fct>, leaf.malf <fct>, stem <fct>,
    ## #   lodging <fct>, stem.cankers <fct>, canker.lesion <fct>,
    ## #   fruiting.bodies <fct>, ext.decay <fct>, int.discolor <fct>,
    ## #   fruit.pods <fct>, fruit.spots <fct>, seed <fct>, mold.growth <fct>,
    ## #   seed.discolor <fct>, seed.size <fct>, shriveling <fct>, roots <fct>

caret::findCorrelation()—-

``` r
data('Vehicle')
Vehicle %>% as_tibble() -> vehicle; vehicle
```

    ## # A tibble: 846 x 19
    ##     Comp  Circ D.Circ Rad.Ra Pr.Axis.Ra Max.L.Ra Scat.Ra Elong Pr.Axis.Rect
    ##    <dbl> <dbl>  <dbl>  <dbl>      <dbl>    <dbl>   <dbl> <dbl>        <dbl>
    ##  1    95    48     83    178         72       10     162    42           20
    ##  2    91    41     84    141         57        9     149    45           19
    ##  3   104    50    106    209         66       10     207    32           23
    ##  4    93    41     82    159         63        9     144    46           19
    ##  5    85    44     70    205        103       52     149    45           19
    ##  6   107    57    106    172         50        6     255    26           28
    ##  7    97    43     73    173         65        6     153    42           19
    ##  8    90    43     66    157         65        9     137    48           18
    ##  9    86    34     62    140         61        7     122    54           17
    ## 10    93    44     98    197         62       11     183    36           22
    ## # … with 836 more rows, and 10 more variables: Max.L.Rect <dbl>,
    ## #   Sc.Var.Maxis <dbl>, Sc.Var.maxis <dbl>, Ra.Gyr <dbl>,
    ## #   Skew.Maxis <dbl>, Skew.maxis <dbl>, Kurt.maxis <dbl>,
    ## #   Kurt.Maxis <dbl>, Holl.Ra <dbl>, Class <fct>
…
``` r
vehicle %>%
  select(-Class) %>%
  cor() %>%
  findCorrelation(cutoff = .7) -> high_cor; high_cor
```

    ##  [1]  3  8 11  7  9 12  2 13 18 17

``` r
vehicle %>%
  select(-high_cor) -> vehicle_filered; vehicle_filered
```

    ## # A tibble: 846 x 9
    ##     Comp Rad.Ra Pr.Axis.Ra Max.L.Ra Max.L.Rect Skew.Maxis Skew.maxis
    ##    <dbl>  <dbl>      <dbl>    <dbl>      <dbl>      <dbl>      <dbl>
    ##  1    95    178         72       10        159         70          6
    ##  2    91    141         57        9        143         72          9
    ##  3   104    209         66       10        158         73         14
    ##  4    93    159         63        9        143         63          6
    ##  5    85    205        103       52        144        127          9
    ##  6   107    172         50        6        169         85          5
    ##  7    97    173         65        6        143         66         13
    ##  8    90    157         65        9        146         67          3
    ##  9    86    140         61        7        127         64          2
    ## 10    93    197         62       11        146         64          4
    ## # … with 836 more rows, and 2 more variables: Kurt.maxis <dbl>,
    ## #   Class <fct>
…
    ## Standard deviations (1, .., p=4):
    ## [1] 1.7083611 0.9560494 0.3830886 0.1439265
    ## 
    ## Rotation (n x k) = (4 x 4):
    ##                     PC1         PC2        PC3        PC4
    ## Sepal.Length  0.5210659 -0.37741762  0.7195664  0.2612863
    ## Sepal.Width  -0.2693474 -0.92329566 -0.2443818 -0.1235096
    ## Petal.Length  0.5804131 -0.02449161 -0.1421264 -0.8014492
    ## Petal.Width   0.5648565 -0.06694199 -0.6342727  0.5235971

``` r
ir.pca$x %>% as_tibble() -> ir; ir
```

    ## # A tibble: 150 x 4
    ##      PC1     PC2     PC3      PC4
    ##    <dbl>   <dbl>   <dbl>    <dbl>
    ##  1 -2.26 -0.478   0.127   0.0241 
    ##  2 -2.07  0.672   0.234   0.103  
    ##  3 -2.36  0.341  -0.0441  0.0283 
    ##  4 -2.29  0.595  -0.0910 -0.0657 
    ##  5 -2.38 -0.645  -0.0157 -0.0358 
    ##  6 -2.07 -1.48   -0.0269  0.00659
    ##  7 -2.44 -0.0475 -0.334  -0.0367 
    ##  8 -2.23 -0.222   0.0884 -0.0245 
    ##  9 -2.33  1.11   -0.145  -0.0268 
    ## 10 -2.18  0.467   0.253  -0.0398 
    ## # … with 140 more rows

``` r
ir %>%
  cbind(., species = iris$Species) %>% 
  as_tibble() -> iris_pca

iris_pca
```

    ## # A tibble: 150 x 5
    ##      PC1     PC2     PC3      PC4 species
    ##    <dbl>   <dbl>   <dbl>    <dbl> <fct>  
    ##  1 -2.26 -0.478   0.127   0.0241  setosa 
    ##  2 -2.07  0.672   0.234   0.103   setosa 
    ##  3 -2.36  0.341  -0.0441  0.0283  setosa 
    ##  4 -2.29  0.595  -0.0910 -0.0657  setosa 
    ##  5 -2.38 -0.645  -0.0157 -0.0358  setosa 
    ##  6 -2.07 -1.48   -0.0269  0.00659 setosa 
    ##  7 -2.44 -0.0475 -0.334  -0.0367  setosa 
    ##  8 -2.23 -0.222   0.0884 -0.0245  setosa 
    ##  9 -2.33  1.11   -0.145  -0.0268  setosa 
    ## 10 -2.18  0.467   0.253  -0.0398  setosa 
    ## # … with 140 more rows
…
