…
``` r
rm(list = ls())
```

h\_bin freq ratio ————————————————————

``` r
tran %>%
  select(custid, h_bin, amt) %>%
  group_by(custid, h_bin) %>%
  summarise(freq = n())
```

    ## # A tibble: 3,816 x 3
    ## # Groups:   custid [2,089]
    ##    custid h_bin  freq
    ##    <chr>  <fct> <int>
    ##  1 C0001  18-23     2
    ##  2 C0002  6-11      3
    ##  3 C0002  12-17     6
    ##  4 C0003  18-23     4
    ##  5 C0004  6-11     12
    ##  6 C0004  12-17    23
    ##  7 C0005  6-11      4
    ##  8 C0005  12-17    14
    ##  9 C0005  18-23     4
    ## 10 C0006  6-11      1
    ## # ... with 3,806 more rows

``` r
tran %>%
  select(custid, h_bin, amt) %>%
  group_by(custid, h_bin) %>%
  summarise(freq = n()) %>%
  ungroup() %>%
  spread(h_bin, freq, fill = 0) %>%
  mutate(total_freq = rowSums(select_if(., is.numeric))) %>%
  mutate_at(vars(-custid), funs(./total_freq)) 
```

    ## # A tibble: 2,089 x 5
    ##    custid `6-11` `12-17` `18-23` total_freq
    ##    <chr>   <dbl>   <dbl>   <dbl>      <dbl>
    ##  1 C0001   0       0       1              1
    ##  2 C0002   0.333   0.667   0              1
    ##  3 C0003   0       0       1              1
    ##  4 C0004   0.343   0.657   0              1
    ##  5 C0005   0.182   0.636   0.182          1
    ##  6 C0006   1       0       0              1
    ##  7 C0008   0.273   0.727   0              1
    ##  8 C0011   0       0       1              1
    ##  9 C0012   0       0.235   0.765          1
    ## 10 C0013   0.833   0       0.167          1
    ## # ... with 2,079 more rows

h\_bin amt ratio ————————————————————-

``` r
tran %>%
  select(custid, h_bin, amt) %>%
  group_by(custid, h_bin) %>%
  summarise(sum.amt = sum(amt))
```

    ## # A tibble: 3,816 x 3
    ## # Groups:   custid [2,089]
    ##    custid h_bin sum.amt
    ##    <chr>  <fct>   <dbl>
    ##  1 C0001  18-23    5840
    ##  2 C0002  6-11    25670
    ##  3 C0002  12-17   64498
    ##  4 C0003  18-23    9980
    ##  5 C0004  6-11    47051
    ##  6 C0004  12-17  154495
    ##  7 C0005  6-11     8960
    ##  8 C0005  12-17   45323
    ##  9 C0005  18-23   39410
    ## 10 C0006  6-11     3980
    ## # ... with 3,806 more rows

``` r
tran %>%
  select(custid, h_bin, amt) %>%
  group_by(custid, h_bin) %>%
  summarise(sum.amt = sum(amt)) %>%
  ungroup() %>%
  spread(h_bin, sum.amt, fill = 0) %>%
  mutate(total_sum = rowSums(select_if(., is.numeric))) %>%
  mutate_at(vars(-custid), funs(./total_sum)) 
```

    ## # A tibble: 2,089 x 5
    ##    custid `6-11` `12-17` `18-23` total_sum
    ##    <chr>   <dbl>   <dbl>   <dbl>     <dbl>
    ##  1 C0001  0        0       1             1
    ##  2 C0002  0.285    0.715   0             1
    ##  3 C0003  0        0       1             1
    ##  4 C0004  0.233    0.767   0             1
    ##  5 C0005  0.0956   0.484   0.421         1
    ##  6 C0006  1        0       0             1
    ##  7 C0008  0.301    0.699   0             1
    ##  8 C0011  0        0       1             1
    ##  9 C0012  0        0.129   0.871         1
    ## 10 C0013  0.823    0       0.177         1
    ## # ... with 2,079 more rows
…
``` r
tran %>%
  select(custid, h_bin, amt) %>%
  group_by(custid, h_bin) %>%
  summarise(freq = n()) %>%
  ungroup() %>%
  spread(h_bin, freq, fill = 0) %>%
  mutate(time_b_mean = apply(select(., -custid), 1, mean)) %>%
  mutate(time_b_std = apply(select(., -custid), 1, sd))
```

    ## # A tibble: 2,089 x 6
    ##    custid `6-11` `12-17` `18-23` time_b_mean time_b_std
    ##    <chr>   <dbl>   <dbl>   <dbl>       <dbl>      <dbl>
    ##  1 C0001       0       0       2       0.667      0.943
    ##  2 C0002       3       6       0       3          2.45 
    ##  3 C0003       0       0       4       1.33       1.89 
    ##  4 C0004      12      23       0      11.7        9.39 
    ##  5 C0005       4      14       4       7.33       4.71 
    ##  6 C0006       1       0       0       0.333      0.471
    ##  7 C0008       3       8       0       3.67       3.30 
    ##  8 C0011       0       0       8       2.67       3.77 
    ##  9 C0012       0       4      13       5.67       5.44 
    ## 10 C0013       5       0       1       2          2.16 
    ## # ... with 2,079 more rows

``` r
tran %>%
  select(custid, h_bin, amt) %>%
  group_by(custid, h_bin) %>%
  summarise(freq = n()) %>%
  ungroup() %>%
  spread(h_bin, freq, fill = 0) %>%
  mutate(time_b_mean = apply(select(., -custid), 1, mean)) %>%
  mutate(time_b_std = apply(select(., -custid), 1, sd)) %>% 
  mutate(time_b_cov = time_b_std/time_b_mean) %>%
  select(custid, time_b_cov) -> cov_df; cov_df
```

    ## # A tibble: 2,089 x 2
    ##    custid time_b_cov
    ##    <chr>       <dbl>
    ##  1 C0001       1.41 
    ##  2 C0002       0.816
    ##  3 C0003       1.41 
    ##  4 C0004       0.805
    ##  5 C0005       0.643
    ##  6 C0006       1.41 
    ##  7 C0008       0.900
    ##  8 C0011       1.41 
    ##  9 C0012       0.959
    ## 10 C0013       1.08 
    ## # ... with 2,079 more rows
…
``` r
gapminder %>% filter(country == 'Korea, Rep.' & year==2007)
```

    ## # A tibble: 1 x 6
    ##   country     continent  year lifeExp      pop gdpPercap
    ##   <fct>       <fct>     <int>   <dbl>    <int>     <dbl>
    ## 1 Korea, Rep. Asia       2007    78.6 49044790    23348.

``` r
gapminder %>% arrange(year, country)
```

    ## # A tibble: 1,704 x 6
    ##    country     continent  year lifeExp      pop gdpPercap
    ##    <fct>       <fct>     <int>   <dbl>    <int>     <dbl>
    ##  1 Afghanistan Asia       1952    28.8  8425333      779.
    ##  2 Albania     Europe     1952    55.2  1282697     1601.
    ##  3 Algeria     Africa     1952    43.1  9279525     2449.
    ##  4 Angola      Africa     1952    30.0  4232095     3521.
    ##  5 Argentina   Americas   1952    62.5 17876956     5911.
    ##  6 Australia   Oceania    1952    69.1  8691212    10040.
    ##  7 Austria     Europe     1952    66.8  6927772     6137.
    ##  8 Bahrain     Asia       1952    50.9   120447     9867.
    ##  9 Bangladesh  Asia       1952    37.5 46886859      684.
    ## 10 Belgium     Europe     1952    68    8730405     8343.
    ## # ... with 1,694 more rows
…
    ## # A tibble: 1 x 5
    ##   n_obs n_countries n_years med_gdpc max_gdppc
    ##   <int>       <int>   <int>    <dbl>     <dbl>
    ## 1  1704         142      12    3532.   113523.

Mutate new variables ———————————————————

``` r
gapminder %>%
  mutate(total_gdp = pop*gdpPercap,
         le_gdp_ratio = lifeExp / gdpPercap,
         lgrk = le_gdp_ratio*100)
```

    ## # A tibble: 1,704 x 9
    ##    country continent  year lifeExp    pop gdpPercap total_gdp le_gdp_ratio
    ##    <fct>   <fct>     <int>   <dbl>  <int>     <dbl>     <dbl>        <dbl>
    ##  1 Afghan~ Asia       1952    28.8 8.43e6      779.   6.57e 9       0.0370
    ##  2 Afghan~ Asia       1957    30.3 9.24e6      821.   7.59e 9       0.0370
    ##  3 Afghan~ Asia       1962    32.0 1.03e7      853.   8.76e 9       0.0375
    ##  4 Afghan~ Asia       1967    34.0 1.15e7      836.   9.65e 9       0.0407
    ##  5 Afghan~ Asia       1972    36.1 1.31e7      740.   9.68e 9       0.0488
    ##  6 Afghan~ Asia       1977    38.4 1.49e7      786.   1.17e10       0.0489
    ##  7 Afghan~ Asia       1982    39.9 1.29e7      978.   1.26e10       0.0408
    ##  8 Afghan~ Asia       1987    40.8 1.39e7      852.   1.18e10       0.0479
    ##  9 Afghan~ Asia       1992    41.7 1.63e7      649.   1.06e10       0.0642
    ## 10 Afghan~ Asia       1997    41.8 2.22e7      635.   1.41e10       0.0657
    ## # ... with 1,694 more rows, and 1 more variable: lgrk <dbl>
…
Like pandas .value\_count() method ——————————————-

``` r
df_imdb %>% group_by(country) %>% tally() %>% arrange(-n)
```

    ## Warning: Factor `country` contains implicit NA, consider using
    ## `forcats::fct_explicit_na`

    ## # A tibble: 66 x 2
    ##    country       n
    ##    <fct>     <int>
    ##  1 USA        3807
    ##  2 UK          448
    ##  3 France      154
    ##  4 Canada      126
    ##  5 Germany      97
    ##  6 Australia    55
    ##  7 India        34
    ##  8 Spain        33
    ##  9 China        30
    ## 10 Italy        23
    ## # ... with 56 more rows
…
``` r
mpg %>% mutate(class=reorder(class, hwy, median)); mpg$class[1:5] 
```

    ## # A tibble: 234 x 11
    ##    manufacturer model displ  year   cyl trans drv     cty   hwy fl    class
    ##    <chr>        <chr> <dbl> <int> <int> <chr> <chr> <int> <int> <chr> <fct>
    ##  1 audi         a4      1.8  1999     4 auto~ f        18    29 p     comp~
    ##  2 audi         a4      1.8  1999     4 manu~ f        21    29 p     comp~
    ##  3 audi         a4      2    2008     4 manu~ f        20    31 p     comp~
    ##  4 audi         a4      2    2008     4 auto~ f        21    30 p     comp~
    ##  5 audi         a4      2.8  1999     6 auto~ f        16    26 p     comp~
    ##  6 audi         a4      2.8  1999     6 manu~ f        18    26 p     comp~
    ##  7 audi         a4      3.1  2008     6 auto~ f        18    27 p     comp~
    ##  8 audi         a4 q~   1.8  1999     4 manu~ 4        18    26 p     comp~
    ##  9 audi         a4 q~   1.8  1999     4 auto~ 4        16    25 p     comp~
    ## 10 audi         a4 q~   2    2008     4 manu~ 4        20    28 p     comp~
    ## # ... with 224 more rows
…
